{
  "9b119505fba6c6609f7cb8fadf65382d1aef69dcb1230ef5d279ec40e1da6ec1": true,
  "7adc6cdde1172c646f8dda7fcb1186d148e59e6d2a40774bd7e03281a653f19c": true,
  "eeea53b50c4be24ca7f1d17475f723d8913988f3ff6c13c76dc3f4a63550f50d": true,
  "ba45b3108e5957deddf449804f273ad1f6c72ea932e21234caf8e2d13dad6ba9": true,
  "429c9aa70e9081e3358b5c3c60be55e48ca0a39ea4de88c8f96441a7e18344b8": true,
  "49df0325daad9c7ae6909a7d9a55802beef7644aa7fe786fd842a1f1773d9885": true,
  "2723c638cdf052d578bfc9ee83b21295cca63c0b548893863a1e3111d3574833": true,
  "3b5a91894c629293d50f359281005c33738de9f043425da5f88e08ae5a7be6bb": true,
  "d2d00b9b5818bd6a464b4c88381014cfa335a8656a6dad09c1d0e409cf765bd9": true,
  "3205d2dddd4968fd2afc1ecf79fb9090f5a9234ba19edb9dbf857e878e519fa2": true,
  "b53f0a3cf470214073999827248d74d5c94eb4e5d75c6c0175c277a339fb5aa8": true,
  "f11f2a3e8f1c528750f36a3f8171db07d72dd1705089f1781dd20988f64bf3e2": true,
  "6654101495fe031d4eaf2a60f42954fe06288d6841054518fa9ee30f14f1e9dc": true,
  "7bcfee613b75b92d81ffd80455a89071b6a723df5baf81eb94a9fd9e20a0a43d": true,
  "5add3393c5a698500ddcd93eb040a542cc70234899cb797b719ac29c718b9045": true,
  "fc8cca020e9dd1792f0e6fbe6073551a8b2f2466a4766d025ccd3502cbc6cf91": true,
  "cbf064f273f247df72486a78f594c43bf33deb8012f12ac9daf578b89c2a6a0c": true,
  "7595effae9295045d7de83517269eadc202c5efd53e315b463ca62006f220275": true,
  "6610d53f5bbef66c1dace3314ddbf208daf41f903fb2475a369aaeea2e3a0c1f": true,
  "5387f4c762240b72e7f617a3aa60c22bc8e858013d1ae29bf4070b5b6741eb89": true,
  "620687ce4b28ba5b0e93717eae681b95aa276c0a73c3a803e940b8474f7df37a": true,
  "9bbd4d0e21545e367068fa17220755f4031816a4cb9278d0acfe71d1bacab0d9": true,
  "b056baf03b69338ac1c92c0c5d46651fa6dafd19f1a0136253f28ac117cfc850": true
}